<svg width="512" height="512" xmlns="http://www.w3.org/2000/svg">

 <g>
  <title>background</title>
  <rect fill="none" id="canvas_background" height="402" width="582" y="-1" x="-1"/>
 </g>
 <g>
  <title>Layer 1</title>
  <path fill="#2bb673" id="XMLID_3_" d="m507.220642,238.81813c0,-0.199982 0,-0.5 0,-0.699982c0,-1.600006 0,-3.200012 -0.100006,-4.700012c0,-0.899994 -0.100006,-1.799988 -0.100006,-2.799988c0,-0.900024 -0.099976,-1.800018 -0.099976,-2.700012c-0.100006,-1.100006 -0.100006,-2.200012 -0.200012,-3.299988c0,-0.700012 -0.100006,-1.400024 -0.100006,-2.100006c-0.100006,-1.200012 -0.199982,-2.399994 -0.299988,-3.600006c0,-0.5 -0.100006,-1.100006 -0.100006,-1.600006c-0.100006,-1.299988 -0.299988,-2.600006 -0.399994,-4c0,-0.299988 -0.100006,-0.699982 -0.100006,-1c-13.200012,-116.199989 -111.799988,-206.499983 -231.5,-206.499983s-218.299999,90.299994 -231.5,206.599989c0,0.300018 -0.100002,0.700012 -0.100002,1c-0.099998,1.300018 -0.299995,2.600006 -0.399998,4c-0.100002,0.5 -0.100002,1.100006 -0.100002,1.600006c-0.099998,1.200012 -0.199997,2.399994 -0.299995,3.600006c0,0.699982 -0.100002,1.399994 -0.100002,2.100006c-0.100002,1.099976 -0.100002,2.199982 -0.200001,3.299988c0,0.899994 -0.099998,1.799988 -0.099998,2.700012c0,0.899994 -0.099998,1.799988 -0.099998,2.799988c0,1.600006 -0.100002,3.200012 -0.100002,4.700012c0,0.199982 0,0.5 0,0.699982c0,0 0,0 0,0.100037s0,0 0,0.100006c0,0.199982 0,0.5 0,0.699982c0,1.600006 0,3.200012 0.100002,4.700012c0,0.899994 0.099998,1.799988 0.099998,2.799988c0,0.899994 0.099998,1.800018 0.099998,2.700012c0.099998,1.100006 0.099998,2.199982 0.200001,3.299988c0,0.700012 0.100002,1.399994 0.100002,2.100006c0.099998,1.199997 0.199997,2.400009 0.299995,3.600021c0,0.5 0.100002,1.099976 0.100002,1.599976c0.100002,1.299988 0.299999,2.599976 0.399998,4c0,0.299988 0.100002,0.700012 0.100002,1c13.200001,116.099976 111.799988,206.400024 231.5,206.400024s218.299988,-90.300049 231.5,-206.5c0,-0.299988 0.100006,-0.700012 0.100006,-1c0.100006,-1.299988 0.299988,-2.600037 0.399994,-4c0.100006,-0.5 0.100006,-1.100037 0.100006,-1.600037c0.100006,-1.199951 0.199982,-2.399963 0.299988,-3.59996c0,-0.700012 0.100006,-1.400024 0.100006,-2.100006c0.100006,-1.100006 0.100006,-2.200012 0.200012,-3.300018c0,-0.899994 0.099976,-1.799988 0.099976,-2.699982c0,-0.899994 0.100006,-1.800018 0.100006,-2.800018c0,-1.599976 0.100006,-3.199982 0.100006,-4.699982c0,-0.200012 0,-0.5 0,-0.700012c0,-0.100037 0,-0.100037 0,-0.200043c0,0.100006 0,0.100006 0,0z" class="st0"/>
  <line stroke-miterlimit="10" stroke-width="56" stroke="#ffffff" fill="none" y2="146" y1="344" x2="400" x1="214" id="XMLID_2_" class="st1"/>
  <line transform="rotate(5.22716, 195.759, 301.045)" stroke-miterlimit="10" stroke-width="50" stroke="#ffffff" fill="none" y2="261.444839" y1="340.644839" x2="138.359432" x1="253.159432" id="XMLID_4_" class="st1"/>
 </g>
</svg>