<svg width="512" height="512" xmlns="http://www.w3.org/2000/svg">

 <g>
  <title>background</title>
  <rect fill="none" id="canvas_background" height="402" width="582" y="-1" x="-1"/>
 </g>
 <g>
  <title>Layer 1</title>
  <path fill="#fc3737" id="XMLID_280_" d="m489,255.899994c0,-0.199997 0,-0.5 0,-0.699997c0,-1.600006 0,-3.200012 -0.100006,-4.700012c0,-0.899994 -0.100006,-1.799988 -0.100006,-2.799988c0,-0.900009 -0.099976,-1.800003 -0.099976,-2.700012c-0.100006,-1.099991 -0.100006,-2.199997 -0.200012,-3.299988c0,-0.700012 -0.100006,-1.400009 -0.100006,-2.100006c-0.100006,-1.199997 -0.199982,-2.399994 -0.299988,-3.600006c0,-0.5 -0.100006,-1.099991 -0.100006,-1.599991c-0.100006,-1.300003 -0.299988,-2.600006 -0.399994,-4c0,-0.300003 -0.100006,-0.699997 -0.100006,-1c-13.200012,-116.199997 -111.799988,-206.499994 -231.5,-206.499994s-218.299999,90.299997 -231.5,206.6c0,0.300003 -0.1,0.699997 -0.1,1c-0.1,1.300003 -0.299999,2.600006 -0.4,4c-0.1,0.5 -0.1,1.100006 -0.1,1.600006c-0.1,1.199997 -0.199999,2.399994 -0.299999,3.599991c0,0.699997 -0.1,1.400009 -0.1,2.100006c-0.1,1.099991 -0.1,2.199997 -0.200001,3.300003c0,0.899994 -0.099998,1.799988 -0.099998,2.699997c0,0.899994 -0.1,1.800003 -0.1,2.800003c0,1.599991 -0.1,3.199997 -0.1,4.699997c0,0.199997 0,0.5 0,0.699997c0,0 0,0 0,0.100006s0,0 0,0.100006c0,0.199982 0,0.5 0,0.699982c0,1.600006 0,3.200012 0.1,4.700012c0,0.899994 0.1,1.799988 0.1,2.799988c0,0.899994 0.099998,1.800018 0.099998,2.700012c0.1,1.100006 0.1,2.199982 0.200001,3.299988c0,0.700012 0.1,1.399994 0.1,2.100006c0.1,1.200012 0.199999,2.399994 0.299999,3.600006c0,0.5 0.1,1.100006 0.1,1.600006c0.1,1.299988 0.299999,2.599976 0.4,4c0,0.299988 0.1,0.699982 0.1,1c13.200001,116.099976 111.800003,206.399994 231.5,206.399994s218.299988,-90.300018 231.5,-206.5c0,-0.299988 0.100006,-0.699982 0.100006,-1c0.100006,-1.299988 0.299988,-2.600006 0.399994,-4c0.100006,-0.5 0.100006,-1.100006 0.100006,-1.600006c0.100006,-1.199982 0.199982,-2.399994 0.299988,-3.599976c0,-0.700012 0.100006,-1.400024 0.100006,-2.100006c0.100006,-1.100006 0.100006,-2.200012 0.200012,-3.300018c0,-0.899994 0.099976,-1.799988 0.099976,-2.699982c0,-0.899994 0.100006,-1.800018 0.100006,-2.800018c0,-1.599976 0.100006,-3.199982 0.100006,-4.699982c0,-0.200012 0,-0.5 0,-0.700012c0,-0.100006 0,-0.100006 0,-0.200012c0,0.100006 0,0.100006 0,0z" class="st0"/>
  <circle fill="#ffffff" r="159.5" id="XMLID_279_" cy="256" cx="256" class="st1"/>
  <line stroke-miterlimit="10" stroke-width="40" stroke="#ff0000" fill="none" y2="330.1" y1="181.9" x2="330.1" x1="181.9" id="XMLID_278_" class="st2"/>
  <line stroke-miterlimit="10" stroke-width="40" stroke="#ff0000" fill="none" y2="180.76121" y1="328.96121" x2="331.23879" x1="183.03879" id="XMLID_277_" class="st2"/>
 </g>
</svg>