<svg width="128" height="128" xmlns="http://www.w3.org/2000/svg">
 <defs>
  <filter id="circle_1__blur">
   <feGaussianBlur stdDeviation="0.4" in="SourceGraphic"/>
  </filter>
  <filter id="line_blur">
   <feGaussianBlur stdDeviation="0.8" in="SourceGraphic"/>
  </filter>
 </defs>
 <g>
  <title>background</title>
  <rect fill="none" id="canvas_background" height="402" width="582" y="-1" x="-1"/>
 </g>
 <g>
  <title>Layer 1</title>
  <circle fill-opacity="0.85" r="64" id="circle" fill="#96b9d1" cy="64" cx="64"/>
  <path filter="url(#circle_1__blur)" stroke="null" id="circle_1_" fill="#FFFFFF" d="m109.888599,64.19431c0,25.284171 -20.472152,45.694285 -45.833177,45.694285s-45.833177,-20.410114 -45.833177,-45.694285s20.472152,-45.694285 45.833177,-45.694285s45.833177,20.410114 45.833177,45.694285zm-45.833177,-39.601714c-21.999925,0 -39.722087,17.668457 -39.722087,39.601714s17.722162,39.601714 39.722087,39.601714s39.722087,-17.668457 39.722087,-39.601714s-17.722162,-39.601714 -39.722087,-39.601714z"/>
  <path stroke="null" filter="url(#line_blur)" id="line" fill="#FFFFFF" d="m64.277775,86.55545l0,0c-2.169433,0 -3.944425,-1.754158 -3.944425,-3.898129l0,-38.981293c0,-2.143971 1.774991,-3.898129 3.944425,-3.898129l0,0c2.169433,0 3.944425,1.754158 3.944425,3.898129l0,38.981293c0,2.143971 -1.774991,3.898129 -3.944425,3.898129z"/>
 </g>
</svg>